…
sports
```

<div class="cell-output-stdout">

    # A tibble: 130,748 × 7
        year institution_name         sports participants revenue expenditure gender
       <dbl> <chr>                    <chr>         <dbl>   <dbl>       <dbl> <chr> 
     1  2015 Alabama A & M University Baseb…           31  345592      397818 men   
     2  2015 Alabama A & M University Baske…           19 1211095      817868 men   
     3  2015 Alabama A & M University Track            61  183333      246949 men   
     4  2015 Alabama A & M University Footb…           99 2808949     3059353 men   
     5  2015 Alabama A & M University Golf              9   78270       83913 men   
     6  2015 Alabama A & M University Tennis            7   78274       99612 men   
     7  2015 University of Alabama a… Baseb…           32 1286361     1245150 men   
     8  2015 University of Alabama a… Baske…           13 4189826     4189826 men   
     9  2015 University of Alabama a… Golf             10  407728      407728 men   
    10  2015 University of Alabama a… Soccer           33 1062855     1052063 men   
    # … with 130,738 more rows
…
What are the estimates for the change in expenditures for each sport?

<div class="cell"
hash="index_cache/gfm/unnamed-chunk-9_0adba854e4925ebe2acba74b924e7a8b">

``` r
account_for_sport_intervals %>%
  filter(str_detect(term, "sports")) %>%
  arrange(desc(.estimate))
```

<div class="cell-output-stdout">

    # A tibble: 30 × 6
       term                 .lower .estimate   .upper .alpha .method  
       <chr>                 <dbl>     <dbl>    <dbl>  <dbl> <chr>    
     1 sportsFootball     2634926.  2835381. 3067996.   0.05 student-t
     2 sportsGymnastics    644231.   704069.  761619.   0.05 student-t
     3 sportsIce Hockey    523371.   578347.  648220.   0.05 student-t
     4 sportsBasketball    549469.   575278.  602532.   0.05 student-t
     5 sportsEquestrian    109748.   204648.  305266.   0.05 student-t
     6 sportsRifle          89728.   155763.  210560.   0.05 student-t
     7 sportsVolleyball    130863.   146536.  161185.   0.05 student-t
     8 sportsSkiing        100897.   126746.  151963.   0.05 student-t
     9 sportsRowing         73766.   119037.  159192.   0.05 student-t
    10 sportsField Hockey   89872.   118878.  142696.   0.05 student-t
    # … with 20 more rows
…
