…
    Operations:

    Linear embedding for factors via GLM for Subject_Matter
    Dummy variables from all_nominal_predictors()

You can see what numeric value is used for each of the subject matter options by using `tidy()`:

``` r
prep(museum_rec) %>%
  tidy(number = 1)
```

    # A tibble: 115 × 4
       level                            value terms          id               
       <chr>                            <dbl> <chr>          <chr>            
     1 Archaeology                    -15.6   Subject_Matter lencode_glm_kFEsv
     2 Archaeology-Greek_and_Egyptian   1.39  Subject_Matter lencode_glm_kFEsv
     3 Archaeology-Medieval            -0.693 Subject_Matter lencode_glm_kFEsv
     4 Archaeology-Mixed               -0.105 Subject_Matter lencode_glm_kFEsv
     5 Archaeology-Other                0     Subject_Matter lencode_glm_kFEsv
     6 Archaeology-Prehistory          -0.693 Subject_Matter lencode_glm_kFEsv
     7 Archaeology-Roman                0.511 Subject_Matter lencode_glm_kFEsv
     8 Arts-Ceramics                   -0.486 Subject_Matter lencode_glm_kFEsv
     9 Arts-Costume_and_textiles       -0.182 Subject_Matter lencode_glm_kFEsv
    10 Arts-Crafts                     -1.61  Subject_Matter lencode_glm_kFEsv
    # … with 105 more rows
…
