…
Our modeling goal is to "discover" topics in [*Stranger Things*](https://github.com/rfordatascience/tidytuesday/tree/master/data/2022/2022-10-18) dialogue. Instead of a supervised or predictive model where our observations have labels, this is an unsupervised approach. Let's start by reading in the data, and focusing only on the show's dialogue:

``` r
library(tidyverse)
episodes_raw <- read_csv('https://raw.githubusercontent.com/rfordatascience/tidytuesday/master/data/2022/2022-10-18/stranger_things_all_dialogue.csv')

dialogue <-
  episodes_raw %>%
  filter(!is.na(dialogue)) %>%
  mutate(season = paste0("season", season))

dialogue
```

    # A tibble: 26,041 × 8
       season  episode  line raw_text                stage…¹ dialo…² start…³ end_t…⁴
       <chr>     <dbl> <dbl> <chr>                   <chr>   <chr>   <time>  <time> 
     1 season1       1     9 [Mike] Something is co… [Mike]  Someth… 01'44"  01'48" 
     2 season1       1    10 A shadow grows on the … <NA>    A shad… 01'48"  01'52" 
     3 season1       1    11 -It is almost here. -W… <NA>    It is … 01'52"  01'54" 
     4 season1       1    12 What if it's the Demog… <NA>    What i… 01'54"  01'56" 
     5 season1       1    13 Oh, Jesus, we're so sc… <NA>    Oh, Je… 01'56"  01'59" 
     6 season1       1    14 It's not the Demogorgo… <NA>    It's n… 01'59"  02'00" 
     7 season1       1    15 An army of troglodytes… <NA>    An arm… 02'00"  02'02" 
     8 season1       1    16 -Troglodytes? -Told ya… [chuck… Troglo… 02'02"  02'05" 
     9 season1       1    18 [softly] Wait a minute. [softl… Wait a… 02'08"  02'09" 
    10 season1       1    19 Did you hear that?      <NA>    Did yo… 02'10"  02'12" 
    # … with 26,031 more rows, and abbreviated variable names ¹​stage_direction,
    #   ²​dialogue, ³​start_time, ⁴​end_time

To start out with, let's create a tidy, tokenized version of the dialogue.

``` r
library(tidytext)

tidy_dialogue <-
  dialogue %>%
  unnest_tokens(word, dialogue)

tidy_dialogue
```

    # A tibble: 143,885 × 8
       season  episode  line raw_text                  stage…¹ start…² end_t…³ word 
       <chr>     <dbl> <dbl> <chr>                     <chr>   <time>  <time>  <chr>
     1 season1       1     9 [Mike] Something is comi… [Mike]  01'44"  01'48"  some…
     2 season1       1     9 [Mike] Something is comi… [Mike]  01'44"  01'48"  is   
     3 season1       1     9 [Mike] Something is comi… [Mike]  01'44"  01'48"  comi…
     4 season1       1     9 [Mike] Something is comi… [Mike]  01'44"  01'48"  some…
     5 season1       1     9 [Mike] Something is comi… [Mike]  01'44"  01'48"  hung…
     6 season1       1     9 [Mike] Something is comi… [Mike]  01'44"  01'48"  for  
     7 season1       1     9 [Mike] Something is comi… [Mike]  01'44"  01'48"  blood
     8 season1       1    10 A shadow grows on the wa… <NA>    01'48"  01'52"  a    
     9 season1       1    10 A shadow grows on the wa… <NA>    01'48"  01'52"  shad…
    10 season1       1    10 A shadow grows on the wa… <NA>    01'48"  01'52"  grows
    # … with 143,875 more rows, and abbreviated variable names ¹​stage_direction,
    #   ²​start_time, ³​end_time
…
These return a ranked set of words (not the underlying metrics themselves). They give us a much clearer idea of what makes each topic unique!

To connect the topics back to seasons, let's use `tidy()` again, finding the `"gamma"` matrix of document-topic probabilities.

``` r
episode_gamma <- tidy(
  topic_model, 
  matrix = "gamma",
  document_names = rownames(dialogue_sparse)
)
episode_gamma
```

    # A tibble: 170 × 3
       document  topic    gamma
       <chr>     <int>    <dbl>
     1 season1_1     1 0.000817
     2 season1_2     1 0.000749
     3 season1_3     1 0.00104 
     4 season1_4     1 0.000758
     5 season1_5     1 0.000806
     6 season1_6     1 0.00201 
     7 season1_7     1 0.00125 
     8 season1_8     1 0.000633
     9 season2_1     1 0.800   
    10 season2_2     1 0.516   
    # … with 160 more rows

We can parse these results to find the season info again:

``` r
episodes_parsed <- 
  episode_gamma %>%
  separate(document, c("season", "episode"), sep = "_")

episodes_parsed
```

    # A tibble: 170 × 4
       season  episode topic    gamma
       <chr>   <chr>   <int>    <dbl>
     1 season1 1           1 0.000817
     2 season1 2           1 0.000749
     3 season1 3           1 0.00104 
     4 season1 4           1 0.000758
     5 season1 5           1 0.000806
     6 season1 6           1 0.00201 
     7 season1 7           1 0.00125 
     8 season1 8           1 0.000633
     9 season2 1           1 0.800   
    10 season2 2           1 0.516   
    # … with 160 more rows
…
