…
texas_pop <- get_acs(geography = "county", 
                     variables = "B01003_001", 
                     state = "TX",
                     geometry = TRUE) 

texas_pop

## Simple feature collection with 254 features and 5 fields
## geometry type:  MULTIPOLYGON
## dimension:      XY
## bbox:           xmin: -106.6456 ymin: 25.83738 xmax: -93.50829 ymax: 36.5007
## epsg (SRID):    4269
## proj4string:    +proj=longlat +datum=NAD83 +no_defs
## # A tibble: 254 x 6
##    GEOID                    NAME   variable estimate   moe               geometry
##    <chr>                   <chr>      <chr>    <dbl> <dbl> <S3: sfc_MULTIPOLYGON>
##  1 48007   Aransas County, Texas B01003_001    24292     0 <S3: sfc_MULTIPOLYGON>
##  2 48025       Bee County, Texas B01003_001    32659     0 <S3: sfc_MULTIPOLYGON>
##  3 48035    Bosque County, Texas B01003_001    17971     0 <S3: sfc_MULTIPOLYGON>
##  4 48067      Cass County, Texas B01003_001    30328     0 <S3: sfc_MULTIPOLYGON>
##  5 48083   Coleman County, Texas B01003_001     8536     0 <S3: sfc_MULTIPOLYGON>
##  6 48091     Comal County, Texas B01003_001   119632     0 <S3: sfc_MULTIPOLYGON>
##  7 48103     Crane County, Texas B01003_001     4730     0 <S3: sfc_MULTIPOLYGON>
##  8 48139     Ellis County, Texas B01003_001   157058     0 <S3: sfc_MULTIPOLYGON>
##  9 48151    Fisher County, Texas B01003_001     3858     0 <S3: sfc_MULTIPOLYGON>
## 10 48167 Galveston County, Texas B01003_001   308163     0 <S3: sfc_MULTIPOLYGON>
## # ... with 244 more rows
…
