…
topic_model

## A topic model with 60 topics, 98000 documents and a 3828 word dictionary.

Explore the topic model

We’ve trained topic models, evaluated them, and picked one to use, so now let’s see what this topic model tells us about the Hacker News corpus. In real life analysis, this process would be iterative, moving from exploring and interpreting a model back and forth to diagnostics and evaluation in order to decide how best to model a corpus. One of the reasons I embrace tidy data principles and tidy tools is that this iterative process is streamlined. For example, let’s tidy() the beta matrix for our topic model and look at the probabilities that each word is generated from each topic.

td_beta <- tidy(topic_model)

td_beta

## # A tibble: 229,680 x 3
##    topic term          beta
##    <int> <chr>        <dbl>
##  1     1 arguments 8.56e-20
##  2     2 arguments 4.20e-15
##  3     3 arguments 3.21e-15
##  4     4 arguments 9.23e-13
##  5     5 arguments 1.45e-12
##  6     6 arguments 5.44e-18
##  7     7 arguments 1.04e-24
##  8     8 arguments 1.52e-11
##  9     9 arguments 4.77e-16
## 10    10 arguments 2.29e-16
## # ... with 229,670 more rows

I’m also quite interested in the probabilities that each document is generated from each topic, that gamma matrix.

td_gamma <- tidy(topic_model, matrix = "gamma",
                 document_names = rownames(hacker_news_sparse))

td_gamma

## # A tibble: 5,880,000 x 3
##    document topic   gamma
##    <chr>    <int>   <dbl>
##  1 1            1 0.00631
##  2 2            1 0.00446
##  3 3            1 0.00670
##  4 4            1 0.00767
##  5 5            1 0.00742
##  6 6            1 0.00907
##  7 7            1 0.00479
##  8 8            1 0.00906
##  9 9            1 0.00801
## 10 10           1 0.00881
## # ... with 5,879,990 more rows
…
