…
I am pleased to announce that tidytext 0.1.6 is now on CRAN!

Most of this release, as well as the 0.1.5 release which I did not blog about, was for maintenance, updates to align with API changes from tidytext’s dependencies, and bugs. I just spent a good chunk of effort getting tidytext to pass R CMD check on older versions of R despite the fact that some of the packages in tidytext’s Suggests require recent versions of R. FUN TIMES. I was glad to get it working, though, because I know that we have users, some teaching on university campuses, etc, who are constrained to older versions of R in various environments.

There are some more interesting updates. For example, did you know about the new-ish stopwords package? This package provides access to stopword lists from multiple sources in multiple languages. If you would like to access these in a list data structure, go to the original package. But if you like your text tidy, I GOT YOU.

library(tidytext)

get_stopwords()

## # A tibble: 175 x 2
##    word      lexicon 
##    <chr>     <chr>   
##  1 i         snowball
##  2 me        snowball
##  3 my        snowball
##  4 myself    snowball
##  5 we        snowball
##  6 our       snowball
##  7 ours      snowball
##  8 ourselves snowball
##  9 you       snowball
## 10 your      snowball
## # ... with 165 more rows

get_stopwords(source = "smart")

## # A tibble: 571 x 2
##    word        lexicon
##    <chr>       <chr>  
##  1 a           smart  
##  2 a's         smart  
##  3 able        smart  
##  4 about       smart  
##  5 above       smart  
##  6 according   smart  
##  7 accordingly smart  
##  8 across      smart  
##  9 actually    smart  
## 10 after       smart  
## # ... with 561 more rows

get_stopwords(language = "ru")

## # A tibble: 159 x 2
##    word  lexicon 
##    <chr> <chr>   
##  1 и     snowball
##  2 в     snowball
##  3 во    snowball
##  4 не    snowball
##  5 что   snowball
##  6 он    snowball
##  7 на    snowball
##  8 я     snowball
##  9 с     snowball
## 10 со    snowball
## # ... with 149 more rows

get_stopwords(language = "it")

## # A tibble: 279 x 2
##    word  lexicon 
##    <chr> <chr>   
##  1 ad    snowball
##  2 al    snowball
##  3 allo  snowball
##  4 ai    snowball
##  5 agli  snowball
##  6 all   snowball
##  7 agl   snowball
##  8 alla  snowball
##  9 alle  snowball
## 10 con   snowball
## # ... with 269 more rows
…
library(gutenbergr)
library(tidyverse)

raw_rilke <- gutenberg_download(c(24288, 33863, 2188, 34521),
                                meta_fields = "title") %>%
    mutate(text = iconv(text, from = "latin-9", to = "UTF-8"))

tidy_rilke <- raw_rilke %>%
    unnest_tokens(word, text) %>%
    count(title, word, sort = TRUE) %>%
    anti_join(get_stopwords(language = "de"))

tidy_rilke

## # A tibble: 18,698 x 3
##    title                                       word       n
##    <chr>                                       <chr>  <int>
##  1 Die Aufzeichnungen des Malte Laurids Brigge immer    160
##  2 Die Aufzeichnungen des Malte Laurids Brigge ganz     155
##  3 Die Aufzeichnungen des Malte Laurids Brigge mehr     140
##  4 Die Aufzeichnungen des Malte Laurids Brigge konnte   132
##  5 Die Aufzeichnungen des Malte Laurids Brigge kam      123
##  6 Die Aufzeichnungen des Malte Laurids Brigge zeit     120
##  7 Die Aufzeichnungen des Malte Laurids Brigge schon    119
##  8 Die Aufzeichnungen des Malte Laurids Brigge sah      101
##  9 Die Aufzeichnungen des Malte Laurids Brigge hätte     97
## 10 Die Aufzeichnungen des Malte Laurids Brigge wäre      95
## # ... with 18,688 more rows
…
