…
Our analysis goal here is to understand how different types of [haunted places in the United States](https://github.com/rfordatascience/tidytuesday/blob/master/data/2023/2023-10-10/readme.md) vary by state. Let's start by reading in the data:

``` r
library(tidyverse)
haunted_places <- read_csv('https://raw.githubusercontent.com/rfordatascience/tidytuesday/master/data/2023/2023-10-10/haunted_places.csv')
```

The `description` variable is longer text explaining details about the haunting, while the `location` variable is shorter text describing the haunted location. Which states are these hauntings in?

``` r
haunted_places |> 
  count(state, sort = TRUE)
```

    # A tibble: 51 × 2
       state             n
       <chr>         <int>
     1 California     1070
     2 Texas           696
     3 Pennsylvania    649
     4 Michigan        529
     5 Ohio            477
     6 New York        459
     7 Illinois        395
     8 Kentucky        370
     9 Indiana         351
    10 Massachusetts   342
    # ℹ 41 more rows
…
What are the most common words used for the haunted locations?

``` r
library(tidytext)

haunted_places |> 
  unnest_tokens(word, location) |> 
  count(word, sort = TRUE)
```

    # A tibble: 7,765 × 2
       word           n
       <chr>      <int>
     1 school      1217
     2 the          989
     3 cemetery     751
     4 high         700
     5 old          599
     6 house        502
     7 university   500
     8 road         437
     9 of           406
    10 college      373
    # ℹ 7,755 more rows
…
``` r
haunted_counts <-
  haunted_places |> 
  mutate(location = str_to_lower(location)) |> 
  mutate(location = case_when(
    str_detect(location, "cemetery|graveyard") ~ "cemetery",
    str_detect(location, "school") ~ "school",
    .default = "other"
  )) |> 
  count(state_abbrev, location)

haunted_counts
```

    # A tibble: 149 × 3
       state_abbrev location     n
       <chr>        <chr>    <int>
     1 AK           cemetery     4
     2 AK           other       23
     3 AK           school       5
     4 AL           cemetery    19
     5 AL           other      187
     6 AL           school      18
     7 AR           cemetery    16
     8 AR           other       91
     9 AR           school      12
    10 AZ           cemetery     3
    # ℹ 139 more rows
…
