…
``` r
bigfoot <-
  bigfoot_raw %>%
  filter(classification != "Class C", !is.na(observed)) %>%
  mutate(
    classification = case_when(
      classification == "Class A" ~ "sighting",
      classification == "Class B" ~ "possible"
    )
  )

bigfoot
```

    # A tibble: 4,953 × 28
       observed  locat…¹ county state season title latit…² longi…³ date       number
       <chr>     <chr>   <chr>  <chr> <chr>  <chr>   <dbl>   <dbl> <date>      <dbl>
     1 "I was c…  <NA>   Winst… Alab… Summer <NA>     NA      NA   NA          30680
     2 "Ed L. w… "East … Valde… Alas… Fall   <NA>     NA      NA   NA           1261
     3 "While a… "Great… Washi… Rhod… Fall   Repo…    41.4   -71.5 1974-09-20   6496
     4 "Hello, … "I wou… York … Penn… Summer <NA>     NA      NA   NA           8000
     5 "It was … "Loggi… Yamhi… Oreg… Spring <NA>     NA      NA   NA            703
     6 "My two … "The c… Washi… Okla… Fall   Repo…    35.3   -99.2 1973-09-28   9765
     7 "I was s… "Vince… Washi… Ohio  Summer Repo…    39.4   -81.7 1971-08-01   4983
     8 "Well la… "Both … Westc… New … Fall   Repo…    41.3   -73.7 2010-09-01  31940
     9 "I grew … "The W… Washo… Neva… Fall   Repo…    39.6  -120.  1970-09-01   5692
    10 "heh i k… "the r… Warre… New … Fall   <NA>     NA      NA   NA            438
    # … with 4,943 more rows, 18 more variables: classification <chr>,
    #   geohash <chr>, temperature_high <dbl>, temperature_mid <dbl>,
    #   temperature_low <dbl>, dew_point <dbl>, humidity <dbl>, cloud_cover <dbl>,
    #   moon_phase <dbl>, precip_intensity <dbl>, precip_probability <dbl>,
    #   precip_type <chr>, pressure <dbl>, summary <chr>, uv_index <dbl>,
    #   visibility <dbl>, wind_bearing <dbl>, wind_speed <dbl>, and abbreviated
    #   variable names ¹​location_details, ²​latitude, ³​longitude
What words from the report have the highest log odds of coming from either category?

``` r
library(tidytext)
library(tidylo)

bigfoot %>%
  unnest_tokens(word, observed) %>%
  count(classification, word) %>%
  filter(n > 100) %>%
  bind_log_odds(classification, word, n) %>%
  arrange(-log_odds_weighted)
```

    # A tibble: 1,747 × 4
       classification word           n log_odds_weighted
       <chr>          <chr>      <int>             <dbl>
     1 possible       howl         455              14.7
     2 sighting       fur          362              13.3
     3 possible       heard       5397              12.7
     4 possible       screams      327              12.5
     5 sighting       ape          300              12.1
     6 possible       knocks       301              12.0
     7 sighting       hands        285              11.8
     8 sighting       headlights   283              11.7
     9 possible       listened     266              11.2
    10 sighting       witness      249              11.0
    # … with 1,737 more rows
…
              Truth
    Prediction possible sighting
      possible      491      158
      sighting      134      456

Let's also check out the variables that ended up most important after regularization.

``` r
library(vip)
bigfoot_final %>%
  extract_fit_engine() %>%
  vi() 
```

    # A tibble: 2,000 × 3
       Variable                  Importance Sign 
       <chr>                          <dbl> <chr>
     1 tfidf_observed_muscular         860. POS  
     2 tfidf_observed_hunched          810. POS  
     3 tfidf_observed_nose             804. POS  
     4 tfidf_observed_shaggy           779. POS  
     5 tfidf_observed_guessing         768. POS  
     6 tfidf_observed_whooping         716. NEG  
     7 tfidf_observed_especially       682. NEG  
     8 tfidf_observed_putting          673. POS  
     9 tfidf_observed_literally        664. NEG  
    10 tfidf_observed_admit            621. POS  
    # … with 1,990 more rows
…
