…
How did our tuning go?

``` r
autoplot(tune_rs) + theme(legend.position = "none")
```

<img src="index.markdown_strict_files/figure-markdown_strict/unnamed-chunk-11-1.png" width="1260" />

Notice that we can get high accuracy but the sensitivity is *terrible*, nearly zero. If we want both sensitivity and specificity to be not awful, we need one of the second round of models. Which were these?

``` r
rank_results(tune_rs, rank_metric = "sensitivity")
```

    # A tibble: 120 × 9
       wflow_id            .config  .metric  mean  std_err     n prepr…¹ model  rank
       <chr>               <chr>    <chr>   <dbl>    <dbl> <int> <chr>   <chr> <int>
     1 downsampling_glmnet Preproc… accura… 0.192 5.43e- 6    10 recipe  logi…     1
     2 downsampling_glmnet Preproc… mn_log… 0.693 2.00e-15    10 recipe  logi…     1
     3 downsampling_glmnet Preproc… sensit… 1     0           10 recipe  logi…     1
     4 downsampling_glmnet Preproc… specif… 0     0           10 recipe  logi…     1
     5 downsampling_glmnet Preproc… accura… 0.192 5.43e- 6    10 recipe  logi…     2
     6 downsampling_glmnet Preproc… mn_log… 0.693 2.00e-15    10 recipe  logi…     2
     7 downsampling_glmnet Preproc… sensit… 1     0           10 recipe  logi…     2
     8 downsampling_glmnet Preproc… specif… 0     0           10 recipe  logi…     2
     9 downsampling_glmnet Preproc… accura… 0.192 5.43e- 6    10 recipe  logi…     3
    10 downsampling_glmnet Preproc… mn_log… 0.693 2.00e-15    10 recipe  logi…     3
    # … with 110 more rows, and abbreviated variable name ¹​preprocessor

Like we probably guessed, these are the models that *do* use downsampling as part of our preprocessing. If we choose a model based on a metric that looks at performance overall (both classes) we would choose the model *without* downsampling:

``` r
rank_results(tune_rs, rank_metric = "mn_log_loss")
```

    # A tibble: 120 × 9
       wflow_id     .config         .metric   mean std_err     n prepr…¹ model  rank
       <chr>        <chr>           <chr>    <dbl>   <dbl> <int> <chr>   <chr> <int>
     1 basic_glmnet Preprocessor1_… accura… 0.814  3.68e-4    10 recipe  logi…     1
     2 basic_glmnet Preprocessor1_… mn_log… 0.441  6.79e-4    10 recipe  logi…     1
     3 basic_glmnet Preprocessor1_… sensit… 0.0830 1.15e-3    10 recipe  logi…     1
     4 basic_glmnet Preprocessor1_… specif… 0.988  4.38e-4    10 recipe  logi…     1
     5 basic_glmnet Preprocessor1_… accura… 0.814  3.88e-4    10 recipe  logi…     2
     6 basic_glmnet Preprocessor1_… mn_log… 0.441  6.62e-4    10 recipe  logi…     2
     7 basic_glmnet Preprocessor1_… sensit… 0.0788 1.28e-3    10 recipe  logi…     2
     8 basic_glmnet Preprocessor1_… specif… 0.989  4.40e-4    10 recipe  logi…     2
     9 basic_glmnet Preprocessor1_… accura… 0.813  4.58e-4    10 recipe  logi…     3
    10 basic_glmnet Preprocessor1_… mn_log… 0.442  6.16e-4    10 recipe  logi…     3
    # … with 110 more rows, and abbreviated variable name ¹​preprocessor
…
It's still slightly easier to identify the majority class (SQUIRRELS!) but this confusion matrix would look way different if we hadn't downsampled, with almost all the observations predicted to be in the majority class.

Which predictors are driving this classification model?

``` r
library(vip)
feeder_vip <-
  extract_fit_engine(final_fit) %>%
  vi()

feeder_vip
```

    # A tibble: 58 × 3
       Variable           Importance Sign 
       <chr>                   <dbl> <chr>
     1 yard_type_pavement      0.634 NEG  
     2 hab_desert_scrub        0.558 NEG  
     3 hab_agricultural        0.555 NEG  
     4 hab_swamp               0.394 POS  
     5 hab_mixed_woods         0.391 POS  
     6 yard_type_desert        0.377 NEG  
     7 nearby_feeders          0.374 POS  
     8 hab_water_salt          0.353 NEG  
     9 housing_density         0.349 POS  
    10 yard_type_woods         0.339 POS  
    # … with 48 more rows
…
