…
-   **Classification with multiple classes**: This isn't great because the "classes" are in a sequence, and classification metrics can't really tell us how wrong we are in a useful way.
-   **Ordered outcome model, like `MASS::polr()`**: This is definitely a good fit for our outcome, but this kind of model is linear and when we have a big dataset like this including complex interactions, a linear model often leaves a lot of possible model performance on the table.
-   **Zero-inflated Poisson regression**: We could treat the outcome as a count with lots of extra zeroes, but again, the implementations I am familiar with are linear.
-   **Just pretend it is continuous**: What happens if we just treat this outcome as if it were a continuous numeric value? Much like with [my screencast last week](https://juliasilge.com/blog/childcare-costs/), this dataset has lots of variables in a big rectangular dataset, many of which are highly correlated with each other, so it's at the sweet spot for xgboost. What happens if we treat this as a regression problem and use xgboost?

Do different states in the US have more or less extreme tornadoes?

``` r
tornadoes |> 
  group_by(st) |> 
  summarise(mag = mean(mag, na.rm = TRUE), n = n()) |> 
  arrange(-mag)
```

    # A tibble: 53 × 3
       st      mag     n
       <chr> <dbl> <int>
     1 AR    1.13   1952
     2 KY    1.09   1099
     3 TN    1.06   1335
     4 MS    1.04   2594
     5 VT    1.04     48
     6 MA    1.03    177
     7 IN    1.03   1556
     8 AL    1.02   2456
     9 NH    1        96
    10 CT    0.992   121
    # ℹ 43 more rows
…
