…
Our modeling goal is to understand how [the pay gap between women and men](https://github.com/rfordatascience/tidytuesday/tree/master/data/2022/2022-06-28) in the UK is related to the types of economic activities workers are involved in.
Let's take three different ways to look at this relationship, walking up in complexity and robustness. The different sectors of work are stored in the `sic_codes` variable, and each company can be involved in multiple. We can use `separate_rows()` from tidyr to, well, separate this into rows!

``` r
library(tidyverse)

paygap_raw <- read_csv('https://raw.githubusercontent.com/rfordatascience/tidytuesday/master/data/2022/2022-06-28/paygap.csv')

paygap_raw %>% 
  select(sic_codes) %>% 
  separate_rows(sic_codes, sep = ":") %>% 
  count(sic_codes, sort = TRUE)
```

    # A tibble: 639 × 2
       sic_codes     n
       <chr>     <int>
     1 1          6584
     2 85310      3020
     3 <NA>       2894
     4 82990      2588
     5 85200      2219
     6 84110      1886
     7 70100      1541
     8 86900      1246
     9 78200      1149
    10 86210      1074
    # … with 629 more rows
…
<img src="index_files/figure-gfm/unnamed-chunk-3-1.png" width="1260" />

Notice that more companies are on the positive side (women earn less) than the negative side (women earn more) but there are plenty of examples where women in more at the individual observation level.

I'd like to understand more about those SIC codes, so I looked them up [from the UK government and downloaded their CSV](https://www.gov.uk/government/publications/standard-industrial-classification-of-economic-activities-sic).

``` r
uk_sic_codes <- 
  read_csv("SIC07_CH_condensed_list_en.csv") %>% 
  janitor::clean_names()

uk_sic_codes
```

    # A tibble: 731 × 2
       sic_code description                                                     
       <chr>    <chr>                                                           
     1 01110    Growing of cereals (except rice), leguminous crops and oil seeds
     2 01120    Growing of rice                                                 
     3 01130    Growing of vegetables and melons, roots and tubers              
     4 01140    Growing of sugar cane                                           
     5 01150    Growing of tobacco                                              
     6 01160    Growing of fibre crops                                          
     7 01190    Growing of other non-perennial crops                            
     8 01210    Growing of grapes                                               
     9 01220    Growing of tropical and subtropical fruits                      
    10 01230    Growing of citrus fruits                                        
    # … with 721 more rows

Let's join this together with the original data, and use `separate_rows()`:

``` r
paygap_joined <-
  paygap_raw %>%
  select(employer_name, diff_median_hourly_percent, sic_codes) %>%
  separate_rows(sic_codes, sep = ":") %>%
  left_join(uk_sic_codes, by = c("sic_codes" = "sic_code"))

paygap_joined
```

    # A tibble: 71,943 × 4
       employer_name                      diff_median_hourly_… sic_codes description
       <chr>                                             <dbl> <chr>     <chr>      
     1 Bryanston School, Incorporated                     28.2 85310     General se…
     2 RED BAND CHEMICAL COMPANY, LIMITED                 -2.7 47730     Dispensing…
     3 123 EMPLOYEES LTD                                  36   78300     Human reso…
     4 1610 LIMITED                                      -34   93110     Operation …
     5 1879 EVENTS MANAGEMENT LIMITED                      8.1 56210     Event cate…
     6 1879 EVENTS MANAGEMENT LIMITED                      8.1 70229     Management…
     7 1LIFE MANAGEMENT SOLUTIONS LIMITED                  2.8 93110     Operation …
     8 1LIFE MANAGEMENT SOLUTIONS LIMITED                  2.8 93130     Fitness fa…
     9 1LIFE MANAGEMENT SOLUTIONS LIMITED                  2.8 93290     Other amus…
    10 1ST HOME CARE LTD.                                  0   86900     Other huma…
    # … with 71,933 more rows
There are a lot of different codes there! Let's treat these codes like text and tokenize them:

``` r
library(tidytext)

paygap_tokenized <-
  paygap_joined %>%
  unnest_tokens(word, description) %>%
  anti_join(get_stopwords()) %>%
  na.omit()

paygap_tokenized
```

    # A tibble: 249,545 × 4
       employer_name                      diff_median_hourly_percent sic_codes word 
       <chr>                                                   <dbl> <chr>     <chr>
     1 Bryanston School, Incorporated                           28.2 85310     gene…
     2 Bryanston School, Incorporated                           28.2 85310     seco…
     3 Bryanston School, Incorporated                           28.2 85310     educ…
     4 RED BAND CHEMICAL COMPANY, LIMITED                       -2.7 47730     disp…
     5 RED BAND CHEMICAL COMPANY, LIMITED                       -2.7 47730     chem…
     6 RED BAND CHEMICAL COMPANY, LIMITED                       -2.7 47730     spec…
     7 RED BAND CHEMICAL COMPANY, LIMITED                       -2.7 47730     stor…
     8 123 EMPLOYEES LTD                                        36   78300     human
     9 123 EMPLOYEES LTD                                        36   78300     reso…
    10 123 EMPLOYEES LTD                                        36   78300     prov…
    # … with 249,535 more rows
…
paygap <-
    paygap_tokenized %>%
    filter(word %in% top_words) %>%
    transmute(
        diff_wage = diff_median_hourly_percent / 100, 
        word
    )

paygap
```

    # A tibble: 94,381 × 2
       diff_wage word       
           <dbl> <chr>      
     1     0.282 secondary  
     2     0.282 education  
     3    -0.027 specialised
     4    -0.027 stores     
     5     0.36  human      
     6     0.36  management 
     7     0.36  human      
     8    -0.34  facilities 
     9     0.081 management 
    10     0.081 management 
    # … with 94,371 more rows
…
## Fit many models

Our third and final approach is to fit the same linear model not one time, but many times. This can give us a more robust estimate of the errors, especially. We can use the `reg_intervals()` function from rsample for this:

``` r
library(rsample)

paygap_intervals <- 
    reg_intervals(diff_wage ~ 0 + word, data = paygap)

paygap_intervals
```

    # A tibble: 40 × 6
       term               .lower .estimate .upper .alpha .method  
       <chr>               <dbl>     <dbl>  <dbl>  <dbl> <chr>    
     1 wordaccommodation  0.0202    0.0243 0.0293   0.05 student-t
     2 wordadministration 0.0473    0.0525 0.0574   0.05 student-t
     3 wordagency         0.0515    0.0593 0.0669   0.05 student-t
     4 wordbusiness       0.138     0.145  0.151    0.05 student-t
     5 wordcare           0.0158    0.0185 0.0210   0.05 student-t
     6 wordconstruction   0.190     0.198  0.205    0.05 student-t
     7 wordeducation      0.234     0.238  0.242    0.05 student-t
     8 wordemployment     0.0428    0.0500 0.0571   0.05 student-t
     9 wordequipment      0.143     0.150  0.158    0.05 student-t
    10 wordfacilities     0.0434    0.0491 0.0541   0.05 student-t
    # … with 30 more rows
…
