…
How did all these models do?

``` r
autoplot(spam_res)
```

<img src="index.markdown_strict_files/figure-markdown_strict/unnamed-chunk-9-1.png" width="1800" />

All of the models do better identifying the positive class (`"n"`) than the negative class (`"y"`) but the naive Bayes classifier does even worse than the other two; it does the worst job at identifying real spam email as spam. (Remember that this isn't the same situation as real spam classifiers, which deal with the whole text.) That random forest is looking pretty good!

``` r
rank_results(spam_res, rank_metric = "accuracy")
```

    # A tibble: 81 × 9
       wflow_id        .config  .metric  mean std_err     n preprocessor model  rank
       <chr>           <chr>    <chr>   <dbl>   <dbl> <int> <chr>        <chr> <int>
     1 formula_rf      Preproc… accura… 0.881 0.00650    10 formula      rand…     1
     2 formula_rf      Preproc… sensit… 0.940 0.00605    10 formula      rand…     1
     3 formula_rf      Preproc… specif… 0.792 0.0110     10 formula      rand…     1
     4 formula_rf_tune Preproc… accura… 0.880 0.00650    10 formula      rand…     2
     5 formula_rf_tune Preproc… sensit… 0.934 0.00520    10 formula      rand…     2
     6 formula_rf_tune Preproc… specif… 0.798 0.0107     10 formula      rand…     2
     7 formula_rf_tune Preproc… accura… 0.880 0.00605    10 formula      rand…     3
     8 formula_rf_tune Preproc… sensit… 0.935 0.00523    10 formula      rand…     3
     9 formula_rf_tune Preproc… specif… 0.795 0.0106     10 formula      rand…     3
    10 formula_rf_tune Preproc… accura… 0.880 0.00634    10 formula      rand…     4
    # ℹ 71 more rows
…
